Buoy
…
combi <- combined_data1 %>%
  mutate(Year = lubridate::year(datetime))

na_summary <- combi %>%
  group_by(Year) %>%
  summarise(
    air_temp_NA_count = sum(is.na(ATMP)),
    water_temp_NA_count = sum(is.na(WTMP)),
    total_rows = n()
  ) %>%
  arrange(desc(air_temp_NA_count), desc(water_temp_NA_count))
na_summary

# A tibble: 41 × 4
    Year air_temp_NA_count water_temp_NA_count total_rows
   <dbl>             <int>               <int>      <int>
 1  2022             52529                 313      52529
 2  2021             27379                 275      51563
 3  2023             21668                 254      52480
 4  1996               263                 263       8952
 5  1997               187                1295       5712
 6  1998               173                 172       8784
 7  1999                89                  91       8348
 8  1989                76                  26       7933
 9  2001                60                  61       8760
10  2002                39                  41       8760
# ℹ 31 more rows
